[
{"nom":"UQAM","ville":"Montreal","pays":"Canada","image":"../images/canada-42703_640.png"},
{"nom":"McGill","ville":"Montreal","pays":"Canada","image":"../images/canada-42703_640.png"},
{"nom":"PolyMtl","ville":"Montreal","pays":"Canada","image":"../images/canada-42703_640.png"},
{"nom":"Laval","ville":"Quebec","pays":"Canada","image":"../images/canada-42703_640.png"},
{"nom":"VUB","ville":"Bruxelles","pays":"Belgique","image":"../images/belgium-1489362_640.png"},
{"nom":"UPMC","ville":"Paris","pays":"France","image":"../images/france-1489367_640.png"},
{"nom":"UCAD","ville":"Dakar","pays":"Sénégal","image":"../images/senegal-1758974_640.png"},
{"nom":"UTM","ville":"Tunis","pays":"Tunisie","image":"../images/tunisia-1758987_640.png"},
{"nom":"UNILU","ville":"Lubumbashi","pays":"RD Congo","image":"../images/democratic-republic-of-the-congo-1758948_640.png"}
]
